- R for the rest of us
…
## Classes 'tbl_df', 'tbl' and 'data.frame':	4039 obs. of  7 variables:
##  $ Students Absent 21 or More Days by School
## 2015-16, Final Survey 5: chr  "*To provide meaningful results and to protect the privacy of individual students, data are displayed only when "| __truncated__ "District #" "1" "1" ...
##  $ X__1                                                              : chr  NA "District Name" "ALACHUA" "ALACHUA" ...
##  $ X__2                                                              : chr  NA "School #" "22" "31" ...
##  $ X__3                                                              : chr  NA "School Name" "EARLY LEARNING ACADEMY AT DUVAL" "J. J. FINLEY ELEMENTARY SCHOOL" ...
##  $ X__4                                                              : chr  NA "Enrollments" "456" "721" ...
##  $ X__5                                                              : chr  NA "Absent 21 Days or Over" "127" "38" ...
##  $ X__6                                                              : chr  NA "% Absent 21 or More Days" "0.278509" "0.0527046" ...

Display the data

absences_1

## # A tibble: 4,039 x 7
##           `Students Absent 21 or More Days by School\n2015-16, Final Survey 5`
##                                                                          <chr>
##  1 *To provide meaningful results and to protect the privacy of individual stu
##  2                                                                  District #
##  3                                                                           1
##  4                                                                           1
##  5                                                                           1
##  6                                                                           1
##  7                                                                           1
##  8                                                                           1
##  9                                                                           1
## 10                                                                           1
## # ... with 4,029 more rows, and 6 more variables: X__1 <chr>, X__2 <chr>,
## #   X__3 <chr>, X__4 <chr>, X__5 <chr>, X__6 <chr>
…
