…
## Classes 'tbl_df', 'tbl' and 'data.frame':    4039 obs. of  7 variables:
##  $ Students Absent 21 or More Days by School
## 2015-16, Final Survey 5: chr  "*To provide meaningful results and to protect the privacy of individual students, data are displayed only when "| __truncated__ "District #" "1" "1" ...
##  $ X__1                                                              : chr  NA "District Name" "ALACHUA" "ALACHUA" ...
##  $ X__2                                                              : chr  NA "School #" "22" "31" ...
##  $ X__3                                                              : chr  NA "School Name" "EARLY LEARNING ACADEMY AT DUVAL" "J. J. FINLEY ELEMENTARY SCHOOL" ...
##  $ X__4                                                              : chr  NA "Enrollments" "456" "721" ...
##  $ X__5                                                              : chr  NA "Absent 21 Days or Over" "127" "38" ...
##  $ X__6                                                              : chr  NA "% Absent 21 or More Days" "0.27850877192000001" "0.05270457697" ...

Display the data

absences_1

## # A tibble: 4,039 x 7
##    `Students Absent 21 or More Da… X__1   X__2   X__3   X__4  X__5  X__6  
##    <chr>                           <chr>  <chr>  <chr>  <chr> <chr> <chr> 
##  1 *To provide meaningful results… <NA>   <NA>   <NA>   <NA>  <NA>  <NA>  
##  2 District #                      Distr… Schoo… Schoo… Enro… Abse… % Abs…
##  3 1                               ALACH… 22     EARLY… 456   127   0.278…
##  4 1                               ALACH… 31     J. J.… 721   38    0.052…
##  5 1                               ALACH… 41     STEPH… 593   34    0.057…
##  6 1                               ALACH… 52     A.QUI… 173   90    0.520…
##  7 1                               ALACH… 71     LAKE … 629   106   0.168…
##  8 1                               ALACH… 81     SIDNE… 198   63    0.318…
##  9 1                               ALACH… 82     HOSPI… 25    0     0     
## 10 1                               ALACH… 91     LITTL… 791   71    0.089…
## # ... with 4,029 more rows
…
