…
### Display the data

```r
absences_1
```

```
## # A tibble: 4,039 x 7
##           `Students Absent 21 or More Days by School\n2015-16, Final Survey 5`
##                                                                          <chr>
##  1 *To provide meaningful results and to protect the privacy of individual stu
##  2                                                                  District #
##  3                                                                           1
##  4                                                                           1
##  5                                                                           1
##  6                                                                           1
##  7                                                                           1
##  8                                                                           1
##  9                                                                           1
## 10                                                                           1
## # ... with 4,029 more rows, and 6 more variables: X__1 <chr>, X__2 <chr>,
## #   X__3 <chr>, X__4 <chr>, X__5 <chr>, X__6 <chr>
```
…
