…
## Response [http://www.fldoe.org/core/fileparse.php/7584/urlt/1516ABS21DAYSchool.xls]
##   Date: 2018-06-02 22:43
##   Status: 200
##   Content-Type: application/msexcel
##   Size: 751 kB
## <ON DISK>  /tmp/RtmpRXNuF8/file2181696c2a14.xls

## Warning: NAs introduced by coercion

## Warning: NAs introduced by coercion

I want to map the average percent of students who missed 21 or more days during the 2015-2016 school year. Below is a tibble of the output.

## # A tibble: 74 x 2
##    district_name  mean
##            <chr> <dbl>
##  1       ALACHUA 14.29
##  2         BAKER 19.64
##  3           BAY 15.28
##  4      BRADFORD 17.70
##  5       BREVARD  6.50
##  6       BROWARD  9.82
##  7       CALHOUN 17.78
##  8     CHARLOTTE  8.41
##  9        CITRUS 10.38
## 10          CLAY  9.69
## # ... with 64 more rows
…
